<?xml version="1.0" standalone="no"?>
<!DOCTYPE svg PUBLIC "-//W3C//DTD SVG 20010904//EN"
 "http://www.w3.org/TR/2001/REC-SVG-20010904/DTD/svg10.dtd">
<svg version="1.0" xmlns="http://www.w3.org/2000/svg"
 width="16.000000pt" height="16.000000pt" viewBox="0 0 16.000000 16.000000"
 preserveAspectRatio="xMidYMid meet">
<metadata>
Created by potrace 1.11, written by Peter Selinger 2001-2013
</metadata>
<g transform="translate(0.000000,16.000000) scale(0.004734,-0.004734)"
fill="#000000" stroke="none">
<path d="M1528 3375 c-2 -2 -32 -6 -68 -9 -88 -8 -141 -15 -166 -21 -12 -2
-38 -7 -59 -11 -47 -7 -274 -71 -320 -89 -11 -5 -41 -16 -67 -26 -99 -38 -293
-142 -325 -175 -14 -13 -10 -21 32 -74 25 -33 43 -61 38 -61 -4 -1 -39 -2 -78
-3 l-70 -1 0 -697 c-1 -740 0 -763 48 -898 20 -55 90 -201 116 -238 10 -15 37
-56 61 -92 179 -266 488 -576 869 -873 164 -128 156 -128 321 0 69 53 127 99
130 102 3 4 52 46 110 95 97 83 382 362 440 431 86 102 161 201 209 274 58 90
145 251 135 251 -4 0 -2 6 4 12 5 7 19 44 31 82 21 67 21 84 21 813 0 703 -1
744 -17 742 -10 -1 -46 -1 -81 0 l-63 1 50 62 c28 34 49 63 48 64 -112 83
-379 212 -494 239 -10 2 -52 14 -93 26 -41 11 -85 22 -97 24 -11 2 -29 6 -40
9 -61 19 -264 38 -430 41 -105 1 -193 2 -195 0z"/>
</g>
</svg>
